{"count":196,"next":"https://ll.thespacedevs.com/2.1.0/launch/upcoming/?limit=5&mode=list&offset=5","previous":null,"results":[{"id":"8b7dcc7f-d44a-4e89-a680-1915b851bd9c","url":"https://ll.thespacedevs.com/2.2.0/launch/8b7dcc7f-d44a-4e89-a680-1915b851bd9c/","launch_library_id":null,"slug":"long-march-2d-beijing-3","name":"Long March 2D | Beijing-3","status":{"id":1,"name":"Go for Launch","abbrev":"Go","description":"Current T-0 confirmed by official or reliable sources."},"net":"2021-06-11T03:05:00Z","window_end":"2021-06-11T03:18:00Z","window_start":"2021-06-11T02:56:00Z","lsp_name":"China Aerospace Science and Technology Corporation","mission":"Beijing-3","mission_type":"Earth Science","pad":"Launch Complex 9","location":"Taiyuan, People's Republic of China","landing":null,"landing_success":null,"launcher":null,"orbit":"SSO","image":"https://spacelaunchnow-prod-east.nyc3.digitaloceanspaces.com/media/launcher_images/long2520march25202d_image_20190222031211.jpeg","infographic":null},{"id":"2873e5f4-dc84-4de7-a86b-7348143c1772","url":"https://ll.thespacedevs.com/2.2.0/launch/2873e5f4-dc84-4de7-a86b-7348143c1772/","launch_library_id":null,"slug":"pegasus-xl-tacrl-2","name":"Pegasus XL | TacRL-2","status":{"id":8,"name":"To Be Confirmed","abbrev":"TBC","description":"Awaiting official confirmation - current date is known with some certainty."},"net":"2021-06-13T07:39:00Z","window_end":"2021-06-13T08:55:00Z","window_start":"2021-06-13T07:39:00Z","lsp_name":"Northrop Grumman Innovation Systems","mission":"TacRL-2","mission_type":"Government/Top Secret","pad":"Vandenberg Air Force Base","location":"Air launch to orbit","landing":null,"landing_success":null,"launcher":null,"orbit":"SSO","image":"https://spacelaunchnow-prod-east.nyc3.digitaloceanspaces.com/media/launcher_images/pegasus2520xl_image_20190224025011.jpeg","infographic":null},{"id":"ba1331d1-2009-4083-80d9-ed654c05ad74","url":"https://ll.thespacedevs.com/2.2.0/launch/ba1331d1-2009-4083-80d9-ed654c05ad74/","launch_library_id":1337,"slug":"minotaur-i-nrol-111","name":"Minotaur I | NROL-111","status":{"id":1,"name":"Go for Launch","abbrev":"Go","description":"Current T-0 confirmed by official or reliable sources."},"net":"2021-06-15T11:00:00Z","window_end":"2021-06-15T15:30:00Z","window_start":"2021-06-15T10:30:00Z","lsp_name":"Northrop Grumman Innovation Systems","mission":"NROL-111","mission_type":"Government/Top Secret","pad":"Launch Area 0 B","location":"Wallops Island, Virginia, USA","landing":null,"landing_success":null,"launcher":null,"orbit":null,"image":"https://spacelaunchnow-prod-east.nyc3.digitaloceanspaces.com/media/launcher_images/minotaur2520i_image_20190224012247.jpeg","infographic":null},{"id":"5c1c76b1-fe29-4b3f-97d0-c35695d5fbd0","url":"https://ll.thespacedevs.com/2.2.0/launch/5c1c76b1-fe29-4b3f-97d0-c35695d5fbd0/","launch_library_id":1292,"slug":"long-march-2f-shenzhou-12","name":"Long March 2F | Shenzhou 12","status":{"id":8,"name":"To Be Confirmed","abbrev":"TBC","description":"Awaiting official confirmation - current date is known with some certainty."},"net":"2021-06-17T00:00:00Z","window_end":"2021-06-17T00:00:00Z","window_start":"2021-06-17T00:00:00Z","lsp_name":"China Aerospace Science and Technology Corporation","mission":"Shenzhou 12","mission_type":"Human Exploration","pad":"Launch Area 4 (SLS-1 / 921)","location":"Jiuquan, People's Republic of China","landing":null,"landing_success":null,"launcher":null,"orbit":"LEO","image":"https://spacelaunchnow-prod-east.nyc3.digitaloceanspaces.com/media/launcher_images/long_march_2f_image_20210513092238.jpeg","infographic":null},{"id":"110c808a-a091-47ab-8532-4fa058c1de7a","url":"https://ll.thespacedevs.com/2.2.0/launch/110c808a-a091-47ab-8532-4fa058c1de7a/","launch_library_id":1526,"slug":"falcon-9-block-5-gps-iii-sv05","name":"Falcon 9 Block 5 | GPS III SV05","status":{"id":8,"name":"To Be Confirmed","abbrev":"TBC","description":"Awaiting official confirmation - current date is known with some certainty."},"net":"2021-06-17T16:09:00Z","window_end":"2021-06-17T16:24:00Z","window_start":"2021-06-17T16:09:00Z","lsp_name":"SpaceX","mission":"GPS III SV05","mission_type":"Navigation","pad":"Space Launch Complex 40","location":"Cape Canaveral, FL, USA","landing":"JRTI","landing_success":0,"launcher":"B1062","orbit":"MEO","image":"https://spacelaunchnow-prod-east.nyc3.digitaloceanspaces.com/media/launcher_images/falcon_9_block__image_20210506060831.jpg","infographic":null}]}