{"count":194,"next":"https://ll.thespacedevs.com/2.1.0/launch/upcoming/?limit=5&mode=list&offset=5","previous":null,"results":[{"id":"5c1c76b1-fe29-4b3f-97d0-c35695d5fbd0","url":"https://ll.thespacedevs.com/2.2.0/launch/5c1c76b1-fe29-4b3f-97d0-c35695d5fbd0/","launch_library_id":1292,"slug":"long-march-2f-shenzhou-12","name":"Long March 2F | Shenzhou 12","status":{"id":3,"name":"Launch Successful","abbrev":"Success","description":"The launch vehicle successfully inserted its payload(s) into the target orbit(s)."},"net":"2021-06-17T01:22:00Z","window_end":"2021-06-17T01:54:00Z","window_start":"2021-06-17T01:13:00Z","lsp_name":"China Aerospace Science and Technology Corporation","mission":"Shenzhou 12","mission_type":"Human Exploration","pad":"Launch Area 4 (SLS-1 / 921)","location":"Jiuquan, People's Republic of China","landing":null,"landing_success":null,"launcher":null,"orbit":"LEO","image":"https://spacelaunchnow-prod-east.nyc3.digitaloceanspaces.com/media/launcher_images/long_march_2f_image_20210513092238.jpeg","infographic":null},{"id":"110c808a-a091-47ab-8532-4fa058c1de7a","url":"https://ll.thespacedevs.com/2.2.0/launch/110c808a-a091-47ab-8532-4fa058c1de7a/","launch_library_id":1526,"slug":"falcon-9-block-5-gps-iii-sv05","name":"Falcon 9 Block 5 | GPS III SV05","status":{"id":6,"name":"Launch in Flight","abbrev":"In Flight","description":"The lauch vehicle has lifted off from the launchpad."},"net":"2021-06-17T16:09:35Z","window_end":"2021-06-17T16:24:00Z","window_start":"2021-06-17T16:09:00Z","lsp_name":"SpaceX","mission":"GPS III SV05","mission_type":"Navigation","pad":"Space Launch Complex 40","location":"Cape Canaveral, FL, USA","landing":"JRTI","landing_success":1,"launcher":"B1062","orbit":"MEO","image":"https://spacelaunchnow-prod-east.nyc3.digitaloceanspaces.com/media/launch_images/falcon2520925_image_20210617145740.jpeg","infographic":"https://spacelaunchnow-prod-east.nyc3.digitaloceanspaces.com/media/launch_images/falcon2520925_infographic_20210617130153.jpeg"},{"id":"31c4ba41-c3a5-4cae-8749-d3afb84abad4","url":"https://ll.thespacedevs.com/2.2.0/launch/31c4ba41-c3a5-4cae-8749-d3afb84abad4/","launch_library_id":null,"slug":"long-march-2c-yaogan-30-09","name":"Long March 2C | Yaogan-30-09","status":{"id":1,"name":"Go for Launch","abbrev":"Go","description":"Current T-0 confirmed by official or reliable sources."},"net":"2021-06-18T06:25:00Z","window_end":"2021-06-18T06:35:00Z","window_start":"2021-06-18T06:20:00Z","lsp_name":"China Aerospace Science and Technology Corporation","mission":"Yaogan-30-09","mission_type":"Government/Top Secret","pad":"Launch Complex 3 ( LC-3 ) ( LA-1 )","location":"Xichang Satellite Launch Center, People's Republic of China","landing":null,"landing_success":null,"launcher":null,"orbit":"LEO","image":"https://spacelaunchnow-prod-east.nyc3.digitaloceanspaces.com/media/launcher_images/long2520march25202_image_20190222031200.jpeg","infographic":null},{"id":"5d248abe-17ef-43ce-9c04-aef33af40520","url":"https://ll.thespacedevs.com/2.2.0/launch/5d248abe-17ef-43ce-9c04-aef33af40520/","launch_library_id":null,"slug":"falcon-9-block-5-transporter-2-dedicated-sso-rides","name":"Falcon 9 Block 5 | Transporter 2 (Dedicated SSO Rideshare)","status":{"id":2,"name":"To Be Determined","abbrev":"TBD","description":"Current date is a 'No Earlier Than' estimation based on unreliable or interpreted sources."},"net":"2021-06-24T00:00:00Z","window_end":"2021-06-24T00:00:00Z","window_start":"2021-06-24T00:00:00Z","lsp_name":"SpaceX","mission":"Transporter 2 (Dedicated SSO Rideshare)","mission_type":"Dedicated Rideshare","pad":"Space Launch Complex 40","location":"Cape Canaveral, FL, USA","landing":"LZ-1","landing_success":0,"launcher":"B1060","orbit":"SSO","image":"https://spacelaunchnow-prod-east.nyc3.digitaloceanspaces.com/media/launcher_images/falcon_9_block__image_20210506060831.jpg","infographic":null},{"id":"1c9140f6-b771-4312-882b-950ff427f36a","url":"https://ll.thespacedevs.com/2.2.0/launch/1c9140f6-b771-4312-882b-950ff427f36a/","launch_library_id":1887,"slug":"launcherone-tubular-bells-part-one","name":"LauncherOne | Tubular Bells, Part One","status":{"id":2,"name":"To Be Determined","abbrev":"TBD","description":"Current date is a 'No Earlier Than' estimation based on unreliable or interpreted sources."},"net":"2021-06-28T00:00:00Z","window_end":"2021-06-28T00:00:00Z","window_start":"2021-06-28T00:00:00Z","lsp_name":"Virgin Orbit","mission":"Tubular Bells, Part One","mission_type":"Dedicated Rideshare","pad":"Mojave Air and Space Port","location":"Air launch to orbit","landing":null,"landing_success":null,"launcher":null,"orbit":"LEO","image":"https://spacelaunchnow-prod-east.nyc3.digitaloceanspaces.com/media/launcher_images/launcherone_image_20200101110016.jpeg","infographic":null}]}