{"count":195,"next":"https://ll.thespacedevs.com/2.1.0/launch/upcoming/?limit=5&mode=list&offset=5","previous":null,"results":[{"id":"ba1331d1-2009-4083-80d9-ed654c05ad74","url":"https://ll.thespacedevs.com/2.2.0/launch/ba1331d1-2009-4083-80d9-ed654c05ad74/","launch_library_id":1337,"slug":"minotaur-i-nrol-111","name":"Minotaur I | NROL-111","status":{"id":3,"name":"Launch Successful","abbrev":"Success","description":"The launch vehicle successfully inserted its payload(s) into the target orbit(s)."},"net":"2021-06-15T13:35:00Z","window_end":"2021-06-15T15:30:00Z","window_start":"2021-06-15T10:30:00Z","lsp_name":"Northrop Grumman Innovation Systems","mission":"NROL-111","mission_type":"Government/Top Secret","pad":"Launch Area 0 B","location":"Wallops Island, Virginia, USA","landing":null,"landing_success":null,"launcher":null,"orbit":null,"image":"https://spacelaunchnow-prod-east.nyc3.digitaloceanspaces.com/media/launcher_images/minotaur2520i_image_20190224012247.jpeg","infographic":"https://spacelaunchnow-prod-east.nyc3.digitaloceanspaces.com/media/launch_images/minotaur2520i_infographic_20210615033109.jpeg"},{"id":"5c1c76b1-fe29-4b3f-97d0-c35695d5fbd0","url":"https://ll.thespacedevs.com/2.2.0/launch/5c1c76b1-fe29-4b3f-97d0-c35695d5fbd0/","launch_library_id":1292,"slug":"long-march-2f-shenzhou-12","name":"Long March 2F | Shenzhou 12","status":{"id":1,"name":"Go for Launch","abbrev":"Go","description":"Current T-0 confirmed by official or reliable sources."},"net":"2021-06-17T01:20:00Z","window_end":"2021-06-17T01:54:00Z","window_start":"2021-06-17T01:13:00Z","lsp_name":"China Aerospace Science and Technology Corporation","mission":"Shenzhou 12","mission_type":"Human Exploration","pad":"Launch Area 4 (SLS-1 / 921)","location":"Jiuquan, People's Republic of China","landing":null,"landing_success":null,"launcher":null,"orbit":"LEO","image":"https://spacelaunchnow-prod-east.nyc3.digitaloceanspaces.com/media/launcher_images/long_march_2f_image_20210513092238.jpeg","infographic":null},{"id":"31c4ba41-c3a5-4cae-8749-d3afb84abad4","url":"https://ll.thespacedevs.com/2.2.0/launch/31c4ba41-c3a5-4cae-8749-d3afb84abad4/","launch_library_id":null,"slug":"long-march-2c-yaogan-30-09","name":"Long March 2C | Yaogan-30-09","status":{"id":1,"name":"Go for Launch","abbrev":"Go","description":"Current T-0 confirmed by official or reliable sources."},"net":"2021-06-17T06:55:00Z","window_end":"2021-06-17T07:05:00Z","window_start":"2021-06-17T06:47:00Z","lsp_name":"China Aerospace Science and Technology Corporation","mission":"Yaogan-30-09","mission_type":"Government/Top Secret","pad":"Launch Complex 3 ( LC-3 ) ( LA-1 )","location":"Xichang Satellite Launch Center, People's Republic of China","landing":null,"landing_success":null,"launcher":null,"orbit":"LEO","image":"https://spacelaunchnow-prod-east.nyc3.digitaloceanspaces.com/media/launcher_images/long2520march25202_image_20190222031200.jpeg","infographic":null},{"id":"110c808a-a091-47ab-8532-4fa058c1de7a","url":"https://ll.thespacedevs.com/2.2.0/launch/110c808a-a091-47ab-8532-4fa058c1de7a/","launch_library_id":1526,"slug":"falcon-9-block-5-gps-iii-sv05","name":"Falcon 9 Block 5 | GPS III SV05","status":{"id":1,"name":"Go for Launch","abbrev":"Go","description":"Current T-0 confirmed by official or reliable sources."},"net":"2021-06-17T16:09:00Z","window_end":"2021-06-17T16:24:00Z","window_start":"2021-06-17T16:09:00Z","lsp_name":"SpaceX","mission":"GPS III SV05","mission_type":"Navigation","pad":"Space Launch Complex 40","location":"Cape Canaveral, FL, USA","landing":"JRTI","landing_success":0,"launcher":"B1062","orbit":"MEO","image":"https://spacelaunchnow-prod-east.nyc3.digitaloceanspaces.com/media/launcher_images/falcon_9_block__image_20210506060831.jpg","infographic":null},{"id":"1c9140f6-b771-4312-882b-950ff427f36a","url":"https://ll.thespacedevs.com/2.2.0/launch/1c9140f6-b771-4312-882b-950ff427f36a/","launch_library_id":1887,"slug":"launcherone-tubular-bells-part-one","name":"LauncherOne | Tubular Bells, Part One","status":{"id":2,"name":"To Be Determined","abbrev":"TBD","description":"Current date is a 'No Earlier Than' estimation based on unreliable or interpreted sources."},"net":"2021-06-21T00:00:00Z","window_end":"2021-06-21T00:00:00Z","window_start":"2021-06-21T00:00:00Z","lsp_name":"Virgin Orbit","mission":"Tubular Bells, Part One","mission_type":"Dedicated Rideshare","pad":"Mojave Air and Space Port","location":"Air launch to orbit","landing":null,"landing_success":null,"launcher":null,"orbit":"LEO","image":"https://spacelaunchnow-prod-east.nyc3.digitaloceanspaces.com/media/launcher_images/launcherone_image_20200101110016.jpeg","infographic":null}]}